<?xml version="1.0" encoding="utf-8"?>
<!-- Generator: Adobe Illustrator 21.0.2, SVG Export Plug-In . SVG Version: 6.00 Build 0)  -->
<svg version="1.1" id="Capa_1" xmlns="http://www.w3.org/2000/svg" xmlns:xlink="http://www.w3.org/1999/xlink" x="0px" y="0px"
	 viewBox="0 0 364 512" style="enable-background:new 0 0 364 512;" xml:space="preserve">
<style type="text/css">
	.st0{fill:#DDDDDD;}
</style>
<path class="st0" d="M-124.8,509.9H-10c4.5,0,8.2-3.8,8.2-8.4V132.3c0-16.6-13.1-30.2-29.3-30.2h-72.6c-16.2,0-29.3,13.5-29.3,30.2
	v369.2C-133,506.2-129.3,509.9-124.8,509.9z M-18.2,493.1h-98.5v-25.2h98.5V493.1z M-18.2,451.1h-98.5V192.7h98.5V451.1z
	 M-18.2,175.9h-98.5v-43.6c0-7.4,5.8-13.4,13-13.4h72.6c7.1,0,13,6,13,13.4L-18.2,175.9L-18.2,175.9z M241,509.9h114.8
	c4.5,0,8.2-3.8,8.2-8.4V132.3c0-16.6-13.1-30.2-29.3-30.2h-72.6c-16.2,0-29.3,13.5-29.3,30.2v29H47.3c-4.5,0-8.2,3.8-8.2,8.4
	c0,4.6,3.7,8.4,8.2,8.4h169.9L82.8,285.9c-3.6,2.9-4.2,8.1-1.4,11.8c2.8,3.7,7.9,4.3,11.5,1.5l135-108.2l-35.1,154.5
	c-1,4.5,1.7,9,6.1,10.1c4.4,1.1,8.8-1.8,9.8-6.3l24.2-106.7v258.9C232.8,506.2,236.5,509.9,241,509.9z M347.7,493.1h-98.5v-25.2
	h98.5V493.1z M347.7,451.1h-98.5V192.7h98.5V451.1z M347.7,175.9h-98.5v-6c0-0.1,0-0.2,0-0.4v-37.2c0-7.4,5.8-13.4,13-13.4h72.6
	c7.1,0,13,6,13,13.4V175.9z"/>
</svg>
